<?xml version="1.0" encoding="utf-8"?>
<!-- Generator: Adobe Illustrator 16.0.0, SVG Export Plug-In . SVG Version: 6.00 Build 0)  -->
<!DOCTYPE svg PUBLIC "-//W3C//DTD SVG 1.1//EN" "http://www.w3.org/Graphics/SVG/1.1/DTD/svg11.dtd">
<svg version="1.1" id="圖層_1" xmlns="http://www.w3.org/2000/svg" xmlns:xlink="http://www.w3.org/1999/xlink" x="0px" y="0px"
	 width="32.134px" height="40.166px" viewBox="73.167 0 32.134 40.166" enable-background="new 73.167 0 32.134 40.166"
	 xml:space="preserve">
<path fill="#4D4D4D" d="M89.233,0l-16,16h32L89.233,0z M89.233,39.999l-16-16h32L89.233,39.999z"/>
</svg>
